Lección 2 Estadística descriptiva | Curso de R básico
…
Propiedades importantes de los valores \(Z\):

No tienen unidades de medida.

Si un valor es menor que la media, su valor \(Z\) será negativo.

Para el cálculo del valor \(Z\) de algún número simplemente le extraemos la media \(\overline{x}\) y lo dividimos entre la desviación estándar \(s\).

Podemos utilizar la función de mutate() del paquete de dplyr para agregar una nueva sección a nuestra base de datos PlantGrowth.
Al utilizar la función group_by() antes de la función mutate() nos aseguramos de que los valores \(Z\) se calculen con la media y la desviación estándar de cada tratamiento y no con la media y desviación estándar resultante de todo el conjunto de datos.

PlantGrowth <- PlantGrowth %>% group_by(group) %>% mutate(Z = ((weight - mean(weight))/sd(weight)))
PlantGrowth

## # A tibble: 30 x 3
## # Groups:   group [3]
##    weight group      Z
##     <dbl> <fct>  <dbl>
##  1   4.17 ctrl  -1.48 
##  2   5.58 ctrl   0.940
##  3   5.18 ctrl   0.254
##  4   6.11 ctrl   1.85 
##  5   4.5  ctrl  -0.912
##  6   4.61 ctrl  -0.724
##  7   5.17 ctrl   0.237
##  8   4.53 ctrl  -0.861
##  9   5.33 ctrl   0.511
## 10   5.14 ctrl   0.185
## # ... with 20 more rows
…
## # A tibble: 3 x 3
##   group Media    SD
##   <fct> <dbl> <dbl>
## 1 ctrl   5.03 0.583
## 2 trt1   4.66 0.794
## 3 trt2   5.53 0.443

En este caso, solamente nos interesa trabajar con la media y la desviación estándar de nuestros tratamientos.
Otra forma de seleccionar las variables es con el argumento starts_with(), por ejemplo, para la selección de los datos del grupo control.

PlantGrowth %>% dplyr::select(starts_with("ctrl"), weight)

## Adding missing grouping variables: `group`

## # A tibble: 30 x 2
## # Groups:   group [3]
##    group weight
##    <fct>  <dbl>
##  1 ctrl    4.17
##  2 ctrl    5.58
##  3 ctrl    5.18
##  4 ctrl    6.11
##  5 ctrl    4.5 
##  6 ctrl    4.61
##  7 ctrl    5.17
##  8 ctrl    4.53
##  9 ctrl    5.33
## 10 ctrl    5.14
## # ... with 20 more rows
…
